﻿[
  {
    "Id": 1,
    "Name": "Brazuka",
    "Description": "Football ball",
    "Cost": 80,
    "ManufacturerId": 1,
    "Image": "https://lh3.googleusercontent.com/proxy/2A31oCSxn4Y0uNIv7JETq6YacqMyPOLoRkJhS4D1lhdATK6InmG_YZADuGD5-jWCzTo1c-Zdw8YCjxB8YvQyJ5mONAjhGs9zPs0Cbn4iTlOSbDk"
  },
  {
    "Id": 2,
    "Name": "Air Max",
    "Description": "Running shoes",
    "Cost": 280,
    "ManufacturerId": 2,
    "Image": "https://allstars.ua/upload/iblock/fb0/fb023d3cffef0c41fd81fb4bf6af41f7.jpg"
  },
  {
    "Id": 3,
    "Name": "Puma m50",
    "Description": "Sport suit",
    "Cost": 200,
    "ManufacturerId": 3,
    "Image": "https://www.dressinn.com/f/13685/136856671/puma-hooded-sweat-suit.jpg"
  },
  {
    "Id": 4,
    "Name": "Predator",
    "Description": "Football boots",
    "Cost": 150,
    "ManufacturerId": 1,
    "Image": "https://www.goalinn.com/f/13737/137379640/adidas-predator-20.3-fg.jpg"
  },
  {
    "Id": 5,
    "Name": "Brazuka",
    "Description": "Football ball",
    "Cost": 80,
    "ManufacturerId": 1,
    "Image": "https://lh3.googleusercontent.com/proxy/2A31oCSxn4Y0uNIv7JETq6YacqMyPOLoRkJhS4D1lhdATK6InmG_YZADuGD5-jWCzTo1c-Zdw8YCjxB8YvQyJ5mONAjhGs9zPs0Cbn4iTlOSbDk"
  },
  {
    "Id": 6,
    "Name": "Air Max",
    "Description": "Running shoes",
    "Cost": 280,
    "ManufacturerId": 2,
    "Image": "https://allstars.ua/upload/iblock/fb0/fb023d3cffef0c41fd81fb4bf6af41f7.jpg"
  },
  {
    "Id": 7,
    "Name": "Puma m50",
    "Description": "Sport suit",
    "Cost": 200,
    "ManufacturerId": 3,
    "Image": "https://www.dressinn.com/f/13685/136856671/puma-hooded-sweat-suit.jpg"
  },
  {
    "Id": 8,
    "Name": "Predator",
    "Description": "Football boots",
    "Cost": 150,
    "ManufacturerId": 1,
    "Image": "https://www.goalinn.com/f/13737/137379640/adidas-predator-20.3-fg.jpg"
  }
]